…
#Flower sizes data

```r
flower_sizes <- flower_sizes_original%>% 
  select(herbarium_accession_sheet, species, flower_number, corolla_length_cm, corolla_width_throat_cm) %>% 
  filter(herbarium_accession_sheet != "NA") %>% 
  filter(corolla_length_cm != "NA", corolla_width_throat_cm != "NA")
flower_sizes
```

```
## # A tibble: 3,006 x 5
##    herbarium_accessio~ species   flower_number corolla_length_~ corolla_width_t~
##    <chr>               <chr>             <dbl>            <dbl>            <dbl>
##  1 Acanthogilia glori~ Acanthog~             1             3.55            0.393
##  2 Acanthogilia glori~ Acanthog~             1             3.70            0.455
##  3 Acanthogilia glori~ Acanthog~             2             2.66            0.37 
##  4 Acanthogilia glori~ Acanthog~             3             2.87            0.375
##  5 Aliciella caespito~ Aliciell~             1             1.65            0.241
##  6 Aliciella caespito~ Aliciell~             2             1.66            0.148
##  7 Aliciella caespito~ Aliciell~             3             1.88            0.201
##  8 Aliciella formosa ~ Aliciell~             1             1.97            0.201
##  9 Aliciella formosa ~ Aliciell~             2             2.12            0.286
## 10 Aliciella formosa ~ Aliciell~             3             2.05            0.23 
## # ... with 2,996 more rows
```
…
```r
flower_sizes_calculated <- flower_sizes %>% 
  group_by(species) %>% 
  summarise(mean_corolla_length_cm = mean(corolla_length_cm, na.rm = TRUE),
         std_dev_corolla_length = sd(corolla_length_cm, na.rm = TRUE),
         mean_corolla_width_throat_cm = mean(corolla_width_throat_cm, na.rm = TRUE),
         std_dev_corolla_width_throat = sd(corolla_width_throat_cm, na.rm = TRUE),
         mean_length_width_ratio = mean_corolla_length_cm/mean_corolla_width_throat_cm) %>% 
  select(species, mean_corolla_length_cm, std_dev_corolla_length, mean_corolla_width_throat_cm, std_dev_corolla_width_throat, mean_length_width_ratio)
flower_sizes_calculated
```

```
## # A tibble: 396 x 6
##    species  mean_corolla_len~ std_dev_corolla~ mean_corolla_wi~ std_dev_corolla~
##    <chr>                <dbl>            <dbl>            <dbl>            <dbl>
##  1 Acantho~             3.20            0.506            0.398            0.0391
##  2 Aliciel~             1.73            0.131            0.197            0.0467
##  3 Aliciel~             2.12            0.0894           0.297            0.0645
##  4 Aliciel~             1.58            0.408            0.209            0.0706
##  5 Aliciel~             1.11            0.295            0.145            0.0258
##  6 Aliciel~             0.818           0.129            0.158            0.0640
##  7 Aliciel~             0.556           0.0207           0.0963           0.0205
##  8 Aliciel~             0.518           0.110            0.0963           0.0220
##  9 Aliciel~             0.636           0.0187           0.128            0.0255
## 10 Aliciel~             0.665           0.0471           0.141            0.0122
## # ... with 386 more rows, and 1 more variable: mean_length_width_ratio <dbl>
```
…
#The Merge

```r
phlox_merge <- inner_join(flower_sizes_calculated, colors_and_pollinators, by = "species")
phlox_merge
```

```
## # A tibble: 145 x 10
##    species  mean_corolla_len~ std_dev_corolla~ mean_corolla_wi~ std_dev_corolla~
##    <chr>                <dbl>            <dbl>            <dbl>            <dbl>
##  1 Acantho~             3.20            0.506            0.398           0.0391 
##  2 Aliciel~             1.73            0.131            0.197           0.0467 
##  3 Aliciel~             0.818           0.129            0.158           0.0640 
##  4 Aliciel~             0.518           0.110            0.0963          0.0220 
##  5 Aliciel~             0.213           0.0110           0.0427          0.00569
##  6 Aliciel~             0.609           0.0376           0.162           0.0202 
##  7 Aliciel~             1.55            0.167            0.228           0.0323 
##  8 Allophy~             0.650           0.0309           0.139           0.0523 
##  9 Allophy~             0.611           0.498            0.121           0.147  
## 10 Allophy~             0.685           0.0962           0.114           0.0169 
## # ... with 135 more rows, and 5 more variables: mean_length_width_ratio <dbl>,
## #   color <chr>, color_source <chr>, pollinator <chr>, pollinator_source <chr>
```
#After joining, we have 293 species that we are working with. 

#It's Plotty Time!

```r
phlox_merge %>% 
  count(color)
```

```
## # A tibble: 27 x 2
##    color                            n
##  * <chr>                        <int>
##  1 blue                            16
##  2 blue-purple                      8
##  3 blue-purple and white (both)     1
##  4 blue-purple to white             1
##  5 blue-violet                      1
##  6 bluish-white                     1
##  7 green                            5
##  8 greenish-yellow                  1
##  9 light blue                       1
## 10 light pink                       2
## # ... with 17 more rows
```
…
```
## Warning: Expected 3 pieces. Additional pieces discarded in 1 rows [96].
```

```
## Warning: Expected 3 pieces. Missing pieces filled with `NA` in 143 rows [1, 2,
## 3, 4, 5, 6, 7, 8, 9, 10, 11, 12, 13, 14, 15, 16, 17, 18, 19, 20, ...].
```

```r
phlox_merge_test_color
```

```
## # A tibble: 145 x 15
##    species  mean_corolla_len~ std_dev_corolla~ mean_corolla_wi~ std_dev_corolla~
##    <chr>    <chr>             <chr>            <chr>            <chr>           
##  1 Acantho~ 3.1955            0.5058705367977~ 0.39825          0.0391013640000~
##  2 Aliciel~ 1.73366666666667  0.1311957824525~ 0.1966666666666~ 0.0466511879091~
##  3 Aliciel~ 0.8175            0.1288716415663~ 0.1583333333333~ 0.0640145816721~
##  4 Aliciel~ 0.518             0.1099602200798~ 0.0963333333333~ 0.0219601912559~
##  5 Aliciel~ 0.213             0.011            0.0426666666666~ 0.0056862407030~
##  6 Aliciel~ 0.6095            0.0375752578168~ 0.1625           0.0201866292381~
##  7 Aliciel~ 1.5465            0.1665713943381~ 0.2278888888888~ 0.0322761774996~
##  8 Allophy~ 0.650333333333333 0.0308922859842~ 0.1386666666666~ 0.0523099735550~
##  9 Allophy~ 0.611433333333333 0.4976104752288~ 0.1206333333333~ 0.1472439878365~
## 10 Allophy~ 0.685             0.0962392851178~ 0.1145           0.0169440254957~
## # ... with 135 more rows, and 10 more variables: mean_length_width_ratio <chr>,
## #   color_1 <chr>, color_2 <chr>, color_3 <chr>, color_4 <chr>,
## #   color_source <chr>, pollinator_1 <chr>, pollinator_2 <chr>,
## #   pollinator_3 <chr>, pollinator_source <chr>
```
…
```
## # A tibble: 145 x 15
##    species  mean_corolla_len~ std_dev_corolla~ mean_corolla_wi~ std_dev_corolla~
##    <chr>    <chr>             <chr>            <chr>            <chr>           
##  1 Acantho~ 3.1955            0.5058705367977~ 0.39825          0.0391013640000~
##  2 Aliciel~ 1.73366666666667  0.1311957824525~ 0.1966666666666~ 0.0466511879091~
##  3 Aliciel~ 0.8175            0.1288716415663~ 0.1583333333333~ 0.0640145816721~
##  4 Aliciel~ 0.518             0.1099602200798~ 0.0963333333333~ 0.0219601912559~
##  5 Aliciel~ 0.213             0.011            0.0426666666666~ 0.0056862407030~
##  6 Aliciel~ 0.6095            0.0375752578168~ 0.1625           0.0201866292381~
##  7 Aliciel~ 1.5465            0.1665713943381~ 0.2278888888888~ 0.0322761774996~
##  8 Allophy~ 0.650333333333333 0.0308922859842~ 0.1386666666666~ 0.0523099735550~
##  9 Allophy~ 0.611433333333333 0.4976104752288~ 0.1206333333333~ 0.1472439878365~
## 10 Allophy~ 0.685             0.0962392851178~ 0.1145           0.0169440254957~
## # ... with 135 more rows, and 10 more variables: mean_length_width_ratio <chr>,
## #   color_1 <chr>, color_2 <chr>, color_3 <chr>, color_4 <chr>,
## #   color_source <chr>, pollinator_1 <chr>, pollinator_2 <chr>,
## #   pollinator_3 <chr>, pollinator_source <chr>
```
…
```r
phlox_long <- phlox_merge_test_color2 %>% 
  pivot_longer(color_1:color_4,
               names_to = "color_number",
               values_to = "color") %>% 
  pivot_longer(pollinator_1:pollinator_3,
               names_to = "pollinator_number",
               values_to = "pollinator") %>%
  select(-color_number, -pollinator_number) %>%
  filter(color!="NA" & pollinator!="NA")
phlox_long
```

```
## # A tibble: 213 x 10
##    species  mean_corolla_len~ std_dev_corolla~ mean_corolla_wi~ std_dev_corolla~
##    <chr>    <chr>             <chr>            <chr>            <chr>           
##  1 Acantho~ 3.1955            0.5058705367977~ 0.39825          0.0391013640000~
##  2 Aliciel~ 1.73366666666667  0.1311957824525~ 0.1966666666666~ 0.0466511879091~
##  3 Aliciel~ 0.8175            0.1288716415663~ 0.1583333333333~ 0.0640145816721~
##  4 Aliciel~ 0.518             0.1099602200798~ 0.0963333333333~ 0.0219601912559~
##  5 Aliciel~ 0.213             0.011            0.0426666666666~ 0.0056862407030~
##  6 Aliciel~ 0.6095            0.0375752578168~ 0.1625           0.0201866292381~
##  7 Aliciel~ 1.5465            0.1665713943381~ 0.2278888888888~ 0.0322761774996~
##  8 Allophy~ 0.650333333333333 0.0308922859842~ 0.1386666666666~ 0.0523099735550~
##  9 Allophy~ 0.611433333333333 0.4976104752288~ 0.1206333333333~ 0.1472439878365~
## 10 Allophy~ 0.685             0.0962392851178~ 0.1145           0.0169440254957~
## # ... with 203 more rows, and 5 more variables: mean_length_width_ratio <chr>,
## #   color_source <chr>, pollinator_source <chr>, color <chr>, pollinator <chr>
```
…
