…
```r
plants
```

```
## # A tibble: 92 x 10
##    name  alternate_name sow_instructions space_instructi… harvest_instruc…
##    <chr> <chr>          <chr>            <chr>            <chr>           
##  1 Amar… Love-lies-ble… Sow in garden. … Space plants: 2… Harvest in 7-8 …
##  2 Ange… <NA>           Easy to grow. S… Space plants: 1… Harvest in appr…
##  3 Arti… <NA>           Easy to grow. S… Space plants: 6… Harvest in 42-5…
##  4 Aspa… <NA>           Easy to grow. P… Space plants: 8… Harvest in 2-3 …
##  5 Aspa… Winged bean    Easy to grow. S… Space plants: 8… Harvest in 8-11…
##  6 Basil <NA>           Grow in seed tr… Space plants: 8… Harvest in 10-1…
##  7 Beet… Beets          Easy to grow. S… Space plants: 8… Harvest in 7-10…
##  8 Bora… Burrage, Bugl… Easy to grow. S… Space plants: 8… Harvest in 8-10…
##  9 Broa… Fava bean      Easy to grow. S… Space plants: 6… Harvest in 12-2…
## 10 Broc… <NA>           Easy to grow. G… Space plants: 1… Harvest in 10-1…
## # … with 82 more rows, and 5 more variables: compatible_plants <chr>,
## #   avoid_instructions <chr>, culinary_hints <chr>,
## #   culinary_preservation <chr>, url <chr>
```
…
```
## Warning: Expected 4 pieces. Additional pieces discarded in 45 rows [2, 4, 5, 6,
## 8, 9, 10, 11, 15, 21, 22, 23, 25, 31, 32, 33, 34, 35, 38, 40, ...].
```

```
## Warning: Expected 2 pieces. Missing pieces filled with `NA` in 10 rows [2, 25,
## 40, 63, 67, 69, 79, 80, 85, 91].
```

```
## # A tibble: 92 x 14
##    name  alt_name_1 alt_name_2 sow_instructions min_in_apart max_in_apart
##    <chr> <chr>      <chr>      <chr>            <chr>        <chr>       
##  1 Amar… Love-lies…  <NA>      Sow in garden. … 20           <NA>        
##  2 Ange… <NA>        <NA>      Easy to grow. S… 18           <NA>        
##  3 Arti… <NA>        <NA>      Easy to grow. S… 63           79          
##  4 Aspa… <NA>        <NA>      Easy to grow. P… 8            16          
##  5 Aspa… Winged be…  <NA>      Easy to grow. S… 8            10          
##  6 Basil <NA>        <NA>      Grow in seed tr… 8            10          
##  7 Beet… Beets       <NA>      Easy to grow. S… 8            12          
##  8 Bora… Burrage    " Bugloss" Easy to grow. S… 8            <NA>        
##  9 Broa… Fava bean   <NA>      Easy to grow. S… 6            10          
## 10 Broc… <NA>        <NA>      Easy to grow. G… 14           20          
## # … with 82 more rows, and 8 more variables: min_harvest_time_wks <chr>,
## #   max_harvest_time_wks <chr>, delete_8 <chr>, compatible_plants <chr>,
## #   avoid_instructions <chr>, culinary_hints <chr>,
## #   culinary_preservation <chr>, url <chr>
```
