…
#Flower Sizes Data
With the first data set, we'll observe the lengths and widths of each species' corollas, removing any NAs recorded for these variables.

```r
flower_sizes <- flower_sizes_original %>% 
  select(herbarium_accession_sheet, species, flower_number, corolla_length_cm, corolla_width_throat_cm) %>% 
  filter(corolla_length_cm != "NA", corolla_width_throat_cm != "NA")
flower_sizes
```

```
# A tibble: 3,006 x 5
   herbarium_accessio~ species   flower_number corolla_length_~ corolla_width_t~
   <chr>               <chr>             <dbl>            <dbl>            <dbl>
 1 Acanthogilia glori~ Acanthog~             1             3.55            0.393
 2 Acanthogilia glori~ Acanthog~             1             3.70            0.455
 3 Acanthogilia glori~ Acanthog~             2             2.66            0.37 
 4 Acanthogilia glori~ Acanthog~             3             2.87            0.375
 5 Aliciella caespito~ Aliciell~             1             1.65            0.241
 6 Aliciella caespito~ Aliciell~             2             1.66            0.148
 7 Aliciella caespito~ Aliciell~             3             1.88            0.201
 8 Aliciella formosa ~ Aliciell~             1             1.97            0.201
 9 Aliciella formosa ~ Aliciell~             2             2.12            0.286
10 Aliciella formosa ~ Aliciell~             3             2.05            0.23 
# ... with 2,996 more rows
```
…
```r
flower_sizes_calculated <- flower_sizes %>% 
  group_by(species) %>% 
  summarise(mean_corolla_length_cm = mean(corolla_length_cm, na.rm = TRUE),
         std_dev_corolla_length = sd(corolla_length_cm, na.rm = TRUE),
         mean_corolla_width_throat_cm = mean(corolla_width_throat_cm, na.rm = TRUE),
         std_dev_corolla_width_throat = sd(corolla_width_throat_cm, na.rm = TRUE),
         mean_length_width_ratio = mean_corolla_length_cm/mean_corolla_width_throat_cm)
flower_sizes_calculated #summary of sizes for each species
```

```
# A tibble: 396 x 6
   species  mean_corolla_len~ std_dev_corolla~ mean_corolla_wi~ std_dev_corolla~
 * <chr>                <dbl>            <dbl>            <dbl>            <dbl>
 1 Acantho~             3.20            0.506            0.398            0.0391
 2 Aliciel~             1.73            0.131            0.197            0.0467
 3 Aliciel~             2.12            0.0894           0.297            0.0645
 4 Aliciel~             1.58            0.408            0.209            0.0706
 5 Aliciel~             1.11            0.295            0.145            0.0258
 6 Aliciel~             0.818           0.129            0.158            0.0640
 7 Aliciel~             0.556           0.0207           0.0963           0.0205
 8 Aliciel~             0.518           0.110            0.0963           0.0220
 9 Aliciel~             0.636           0.0187           0.128            0.0255
10 Aliciel~             0.665           0.0471           0.141            0.0122
# ... with 386 more rows, and 1 more variable: mean_length_width_ratio <dbl>
```
…
#Pollinator and Color Data
With our second data set, we'll observe the different colors and pollinators associated with each species. Note: this data is not yet clean.

```r
colors_and_pollinators <- colors_and_pollinators_original %>% 
  rename(color_source="source", pollinator_source="source_1") #%>% 
  #filter(color != "NA" & pollinator != "NA")
colors_and_pollinators
```

```
# A tibble: 429 x 5
   species                color color_source      pollinator pollinator_source  
   <chr>                  <chr> <chr>             <chr>      <chr>              
 1 Acanthogilia gloriosa  white Hsu and Hall 2003 hummingbi~ Hsu and Hall 2003  
 2 Aliciella caespitosa   red   Porter 1998       hummingbi~ Grant and Grant 19~
 3 Aliciella formosa      pink  Porter 1998       <NA>       <NA>               
 4 Aliciella haydenii     pink  Porter 1998       <NA>       <NA>               
 5 Aliciella heterostyla  pink  Porter 1998       <NA>       <NA>               
 6 Aliciella hutchinsifo~ white Porter 1998       autogamous Grant and Grant 19~
 7 Aliciella latifolia    pink  Porter 1998       <NA>       <NA>               
 8 Aliciella leptomeria   white Porter 1998       autogamous Grant and Grant 19~
 9 Aliciella lottiae      white Porter 1998       <NA>       <NA>               
10 Aliciella mcvickerae   blue  Porter 1998       <NA>       <NA>               
# ... with 419 more rows
```
…
#The Merge

```r
phlox_merge <- inner_join(flower_sizes_calculated, colors_and_pollinators, by = "species")
phlox_merge
```

```
# A tibble: 292 x 10
   species  mean_corolla_len~ std_dev_corolla~ mean_corolla_wi~ std_dev_corolla~
   <chr>                <dbl>            <dbl>            <dbl>            <dbl>
 1 Acantho~             3.20            0.506            0.398            0.0391
 2 Aliciel~             1.73            0.131            0.197            0.0467
 3 Aliciel~             2.12            0.0894           0.297            0.0645
 4 Aliciel~             1.58            0.408            0.209            0.0706
 5 Aliciel~             1.11            0.295            0.145            0.0258
 6 Aliciel~             0.818           0.129            0.158            0.0640
 7 Aliciel~             0.556           0.0207           0.0963           0.0205
 8 Aliciel~             0.518           0.110            0.0963           0.0220
 9 Aliciel~             0.636           0.0187           0.128            0.0255
10 Aliciel~             0.665           0.0471           0.141            0.0122
# ... with 282 more rows, and 5 more variables: mean_length_width_ratio <dbl>,
#   color <chr>, color_source <chr>, pollinator <chr>, pollinator_source <chr>
```
…
```
## Warning: Expected 3 pieces. Additional pieces discarded in 1 rows [164].
```

```
## Warning: Expected 3 pieces. Missing pieces filled with `NA` in 143 rows [1, 2,
## 6, 8, 11, 14, 18, 21, 22, 23, 24, 25, 26, 28, 29, 34, 36, 37, 39, 41, ...].
```

```r
phlox_clean_up1
```

```
## # A tibble: 292 x 15
##    species  mean_corolla_len~ std_dev_corolla~ mean_corolla_wi~ std_dev_corolla~
##    <chr>    <chr>             <chr>            <chr>            <chr>           
##  1 Acantho~ 3.1955            0.5058705367977~ 0.39825          0.0391013640000~
##  2 Aliciel~ 1.73366666666667  0.1311957824525~ 0.1966666666666~ 0.0466511879091~
##  3 Aliciel~ 2.11688888888889  0.0894000062142~ 0.2972222222222~ 0.0644530406144~
##  4 Aliciel~ 1.581             0.4083356462519~ 0.2094666666666~ 0.0706195710092~
##  5 Aliciel~ 1.10816666666667  0.2946743400207~ 0.1446666666666~ 0.0257966406081~
##  6 Aliciel~ 0.8175            0.1288716415663~ 0.1583333333333~ 0.0640145816721~
##  7 Aliciel~ 0.556             0.0207243817760~ 0.0963333333333~ 0.0205365527779~
##  8 Aliciel~ 0.518             0.1099602200798~ 0.0963333333333~ 0.0219601912559~
##  9 Aliciel~ 0.636             0.0186815416922~ 0.1283333333333~ 0.0255016339345~
## 10 Aliciel~ 0.664666666666667 0.0470885690304~ 0.1413333333333~ 0.0122202018532~
## # ... with 282 more rows, and 10 more variables: mean_length_width_ratio <chr>,
## #   color_1 <chr>, color_2 <chr>, color_3 <chr>, color_4 <chr>,
## #   color_source <chr>, pollinator_1 <chr>, pollinator_2 <chr>,
## #   pollinator_3 <chr>, pollinator_source <chr>
```
…
```
## # A tibble: 292 x 15
##    species  mean_corolla_len~ std_dev_corolla~ mean_corolla_wi~ std_dev_corolla~
##    <chr>    <chr>             <chr>            <chr>            <chr>           
##  1 Acantho~ 3.1955            0.5058705367977~ 0.39825          0.0391013640000~
##  2 Aliciel~ 1.73366666666667  0.1311957824525~ 0.1966666666666~ 0.0466511879091~
##  3 Aliciel~ 2.11688888888889  0.0894000062142~ 0.2972222222222~ 0.0644530406144~
##  4 Aliciel~ 1.581             0.4083356462519~ 0.2094666666666~ 0.0706195710092~
##  5 Aliciel~ 1.10816666666667  0.2946743400207~ 0.1446666666666~ 0.0257966406081~
##  6 Aliciel~ 0.8175            0.1288716415663~ 0.1583333333333~ 0.0640145816721~
##  7 Aliciel~ 0.556             0.0207243817760~ 0.0963333333333~ 0.0205365527779~
##  8 Aliciel~ 0.518             0.1099602200798~ 0.0963333333333~ 0.0219601912559~
##  9 Aliciel~ 0.636             0.0186815416922~ 0.1283333333333~ 0.0255016339345~
## 10 Aliciel~ 0.664666666666667 0.0470885690304~ 0.1413333333333~ 0.0122202018532~
## # ... with 282 more rows, and 10 more variables: mean_length_width_ratio <chr>,
## #   color_1 <chr>, color_2 <chr>, color_3 <chr>, color_4 <chr>,
## #   color_source <chr>, pollinator_1 <chr>, pollinator_2 <chr>,
## #   pollinator_3 <chr>, pollinator_source <chr>
```
…
```r
phlox_long <- phlox_tidy %>% 
  pivot_longer(color_1:color_4,
               names_to = "color_number",
               values_to = "color") %>% 
  pivot_longer(pollinator_1:pollinator_3,
               names_to = "pollinator_number",
               values_to = "pollinator") %>%
  select(-color_number, -pollinator_number)
phlox_long
```

```
## # A tibble: 3,504 x 10
##    species  mean_corolla_len~ std_dev_corolla~ mean_corolla_wi~ std_dev_corolla~
##    <chr>    <chr>             <chr>            <chr>            <chr>           
##  1 Acantho~ 3.1955            0.5058705367977~ 0.39825          0.0391013640000~
##  2 Acantho~ 3.1955            0.5058705367977~ 0.39825          0.0391013640000~
##  3 Acantho~ 3.1955            0.5058705367977~ 0.39825          0.0391013640000~
##  4 Acantho~ 3.1955            0.5058705367977~ 0.39825          0.0391013640000~
##  5 Acantho~ 3.1955            0.5058705367977~ 0.39825          0.0391013640000~
##  6 Acantho~ 3.1955            0.5058705367977~ 0.39825          0.0391013640000~
##  7 Acantho~ 3.1955            0.5058705367977~ 0.39825          0.0391013640000~
##  8 Acantho~ 3.1955            0.5058705367977~ 0.39825          0.0391013640000~
##  9 Acantho~ 3.1955            0.5058705367977~ 0.39825          0.0391013640000~
## 10 Acantho~ 3.1955            0.5058705367977~ 0.39825          0.0391013640000~
## # ... with 3,494 more rows, and 5 more variables:
## #   mean_length_width_ratio <chr>, color_source <chr>, pollinator_source <chr>,
## #   color <chr>, pollinator <chr>
```
…
Looking at Genus in Phlox Family:

```r
phlox_long %>% 
  count(genus)
```

```
## # A tibble: 30 x 2
##    genus            n
##  * <chr>        <int>
##  1 Acanthogilia    12
##  2 Aliciella      228
##  3 Allophyllum     60
##  4 Bonplandia      12
##  5 Bryantiella     12
##  6 Cantua          96
##  7 Cobaea         168
##  8 Collomia       132
##  9 Dayia           24
## 10 Eriastrum      156
## # ... with 20 more rows
```
…
